Conflict and Event Data - 3: Data Wrangling
…
# A tibble: 1 × 51
      id relid    year active_year code_status type_of_violence conflict_dset_id
   <dbl> <chr>   <dbl> <lgl>       <chr>                  <dbl>            <dbl>
1 244657 IRQ-20…  2017 TRUE        Clear                      1              259
# ℹ 44 more variables: conflict_new_id <dbl>, conflict_name <chr>,
#   dyad_dset_id <dbl>, dyad_new_id <dbl>, dyad_name <chr>,
#   side_a_dset_id <dbl>, side_a_new_id <dbl>, side_a <chr>,
#   side_b_dset_id <dbl>, side_b_new_id <dbl>, side_b <chr>,
#   number_of_sources <dbl>, source_article <chr>, source_office <chr>,
#   source_date <chr>, source_headline <chr>, source_original <chr>,
#   where_prec <dbl>, where_coordinates <chr>, where_description <chr>, …

ucdp[, 1]      # first column

# A tibble: 385,918 × 1
       id
    <dbl>
 1 244657
 2 412700
 3 413023
 4 412909
 5 132140
 6 130364
 7 130359
 8 133883
 9 133874
10 133878
# ℹ 385,908 more rows
…
# A tibble: 3 × 2
      id relid             
   <dbl> <chr>             
1 244657 IRQ-2017-1-524-322
2 412700 IRQ-2021-1-524-145
3 413023 IRQ-2021-1-524-143

Base R Logical Filtering

We can also filter by condition:

ucdp[ucdp$country == "Kenya", ]

# A tibble: 1,215 × 51
      id relid    year active_year code_status type_of_violence conflict_dset_id
   <dbl> <chr>   <dbl> <lgl>       <chr>                  <dbl>            <dbl>
 1 29691 ETH-20…  2011 TRUE        Clear                      1              329
 2 25578 SOM-20…  2007 TRUE        Clear                      1              337
 3 30830 SOM-20…  2011 TRUE        Clear                      1              337
 4 31463 SOM-20…  2012 TRUE        Clear                      1              337
 5 31446 SOM-20…  2012 TRUE        Clear                      1              337
 6 31189 SOM-20…  2012 TRUE        Clear                      1              337
 7 31442 SOM-20…  2012 TRUE        Clear                      1              337
 8 31464 SOM-20…  2012 TRUE        Clear                      1              337
 9 31488 SOM-20…  2012 TRUE        Clear                      1              337
10 31465 SOM-20…  2012 TRUE        Clear                      1              337
# ℹ 1,205 more rows
# ℹ 44 more variables: conflict_new_id <dbl>, conflict_name <chr>,
#   dyad_dset_id <dbl>, dyad_new_id <dbl>, dyad_name <chr>,
#   side_a_dset_id <dbl>, side_a_new_id <dbl>, side_a <chr>,
#   side_b_dset_id <dbl>, side_b_new_id <dbl>, side_b <chr>,
#   number_of_sources <dbl>, source_article <chr>, source_office <chr>,
#   source_date <chr>, source_headline <chr>, source_original <chr>, …

Multiple conditions:

ucdp[ucdp$country == "Kenya" & ucdp$year == 2020, ]

# A tibble: 65 × 51
       id relid   year active_year code_status type_of_violence conflict_dset_id
    <dbl> <chr>  <dbl> <lgl>       <chr>                  <dbl>            <dbl>
 1 326839 KEN-2…  2020 FALSE       Clear                      3               91
 2 326894 KEN-2…  2020 FALSE       Clear                      3               91
 3 336535 KEN-2…  2020 FALSE       Clear                      3               91
 4 336312 KEN-2…  2020 FALSE       Clear                      3               91
 5 339519 KEN-2…  2020 FALSE       Clear                      3               91
 6 336536 KEN-2…  2020 FALSE       Clear                      3               91
 7 339522 KEN-2…  2020 FALSE       Clear                      3               91
 8 339523 KEN-2…  2020 FALSE       Clear                      3               91
 9 339524 KEN-2…  2020 FALSE       Clear                      3               91
10 341645 KEN-2…  2020 FALSE       Clear                      3               91
# ℹ 55 more rows
# ℹ 44 more variables: conflict_new_id <dbl>, conflict_name <chr>,
#   dyad_dset_id <dbl>, dyad_new_id <dbl>, dyad_name <chr>,
#   side_a_dset_id <dbl>, side_a_new_id <dbl>, side_a <chr>,
#   side_b_dset_id <dbl>, side_b_new_id <dbl>, side_b <chr>,
#   number_of_sources <dbl>, source_article <chr>, source_office <chr>,
#   source_date <chr>, source_headline <chr>, source_original <chr>, …

🔥 dplyr: A Cleaner Way

The dplyr package is easier to read and more powerful.

Select Columns

ucdp %>% select(country, fatalities_best)

# A tibble: 385,918 × 2
   country     fatalities_best
   <chr>                 <dbl>
 1 Afghanistan               6
 2 Afghanistan             183
 3 Afghanistan               2
 4 Afghanistan              10
 5 Afghanistan               6
 6 Afghanistan               4
 7 Afghanistan             600
 8 Afghanistan               2
 9 Afghanistan              70
10 Afghanistan              20
# ℹ 385,908 more rows

Filter Rows

ucdp %>% filter(country == "Kenya")

# A tibble: 1,215 × 51
      id relid    year active_year code_status type_of_violence conflict_dset_id
   <dbl> <chr>   <dbl> <lgl>       <chr>                  <dbl>            <dbl>
 1 29691 ETH-20…  2011 TRUE        Clear                      1              329
 2 25578 SOM-20…  2007 TRUE        Clear                      1              337
 3 30830 SOM-20…  2011 TRUE        Clear                      1              337
 4 31463 SOM-20…  2012 TRUE        Clear                      1              337
 5 31446 SOM-20…  2012 TRUE        Clear                      1              337
 6 31189 SOM-20…  2012 TRUE        Clear                      1              337
 7 31442 SOM-20…  2012 TRUE        Clear                      1              337
 8 31464 SOM-20…  2012 TRUE        Clear                      1              337
 9 31488 SOM-20…  2012 TRUE        Clear                      1              337
10 31465 SOM-20…  2012 TRUE        Clear                      1              337
# ℹ 1,205 more rows
# ℹ 44 more variables: conflict_new_id <dbl>, conflict_name <chr>,
#   dyad_dset_id <dbl>, dyad_new_id <dbl>, dyad_name <chr>,
#   side_a_dset_id <dbl>, side_a_new_id <dbl>, side_a <chr>,
#   side_b_dset_id <dbl>, side_b_new_id <dbl>, side_b <chr>,
#   number_of_sources <dbl>, source_article <chr>, source_office <chr>,
#   source_date <chr>, source_headline <chr>, source_original <chr>, …

Filter with multiple conditions:

ucdp %>% filter(country == "Sudan" & year == 2021)

# A tibble: 77 × 51
       id relid   year active_year code_status type_of_violence conflict_dset_id
    <dbl> <chr>  <dbl> <lgl>       <chr>                  <dbl>            <dbl>
 1 385614 SUD-2…  2021 TRUE        Clear                      1              309
 2 385613 SUD-2…  2021 TRUE        Clear                      1              309
 3 380326 SUD-2…  2021 TRUE        Clear                      1              309
 4 385339 SUD-2…  2021 TRUE        Clear                      1              309
 5 410900 SUD-2…  2021 TRUE        Clear                      1              309
 6 381016 ETH-2…  2021 TRUE        Clear                      3               97
 7 380075 ETH-2…  2021 TRUE        Clear                      3               97
 8 385464 ETH-2…  2021 TRUE        Clear                      3               97
 9 389846 ETH-2…  2021 TRUE        Clear                      3               97
10 405840 ETH-2…  2021 TRUE        Clear                      3               97
# ℹ 67 more rows
# ℹ 44 more variables: conflict_new_id <dbl>, conflict_name <chr>,
#   dyad_dset_id <dbl>, dyad_new_id <dbl>, dyad_name <chr>,
#   side_a_dset_id <dbl>, side_a_new_id <dbl>, side_a <chr>,
#   side_b_dset_id <dbl>, side_b_new_id <dbl>, side_b <chr>,
#   number_of_sources <dbl>, source_article <chr>, source_office <chr>,
#   source_date <chr>, source_headline <chr>, source_original <chr>, …
…
👉 Task:

- Use filter() to select all rows where fatalities > 20.

- Use select() to keep only country, year, and fatalities_best.

# your code here

Arrange (Sort)

Sort data by fatalities:

ucdp %>% arrange(fatalities_best)

# A tibble: 385,918 × 51
       id relid   year active_year code_status type_of_violence conflict_dset_id
    <dbl> <chr>  <dbl> <lgl>       <chr>                  <dbl>            <dbl>
 1 134183 AFG-1…  1989 TRUE        Clear                      1              333
 2 134399 AFG-1…  1991 TRUE        Clear                      1              333
 3 145682 AFG-1…  1992 TRUE        Clear                      1              333
 4 145697 AFG-1…  1992 TRUE        Clear                      1              333
 5 145758 AFG-1…  1992 TRUE        Clear                      1              333
 6 145800 AFG-1…  1993 TRUE        Clear                      1              333
 7 145843 AFG-1…  1993 TRUE        Clear                      1              333
 8 146149 AFG-1…  1994 TRUE        Clear                      1              333
 9 147668 AFG-2…  2003 TRUE        Clear                      1              333
10 147675 AFG-2…  2003 TRUE        Clear                      1              333
# ℹ 385,908 more rows
# ℹ 44 more variables: conflict_new_id <dbl>, conflict_name <chr>,
#   dyad_dset_id <dbl>, dyad_new_id <dbl>, dyad_name <chr>,
#   side_a_dset_id <dbl>, side_a_new_id <dbl>, side_a <chr>,
#   side_b_dset_id <dbl>, side_b_new_id <dbl>, side_b <chr>,
#   number_of_sources <dbl>, source_article <chr>, source_office <chr>,
#   source_date <chr>, source_headline <chr>, source_original <chr>, …

Sort descending:

ucdp %>% arrange(desc(fatalities_best))

# A tibble: 385,918 × 51
       id relid   year active_year code_status type_of_violence conflict_dset_id
    <dbl> <chr>  <dbl> <lgl>       <chr>                  <dbl>            <dbl>
 1 463137 ETH-2…  2022 TRUE        Clear                      1              267
 2 463131 ETH-2…  2021 TRUE        Clear                      1              267
 3  34362 ETH-2…  2000 TRUE        Clear                      1              409
 4 289326 RWA-1…  1994 TRUE        Clear                      3               94
 5 445207 RWA-1…  1994 TRUE        Clear                      3               94
 6  40030 RWA-1…  1994 TRUE        Clear                      3               94
 7 296657 RWA-1…  1994 TRUE        Clear                      3               94
 8  34346 ETH-1…  1999 TRUE        Clear                      1              409
 9  39595 RWA-1…  1994 TRUE        Clear                      3               94
10 338468 RWA-1…  1994 TRUE        Clear                      3               94
# ℹ 385,908 more rows
# ℹ 44 more variables: conflict_new_id <dbl>, conflict_name <chr>,
#   dyad_dset_id <dbl>, dyad_new_id <dbl>, dyad_name <chr>,
#   side_a_dset_id <dbl>, side_a_new_id <dbl>, side_a <chr>,
#   side_b_dset_id <dbl>, side_b_new_id <dbl>, side_b <chr>,
#   number_of_sources <dbl>, source_article <chr>, source_office <chr>,
#   source_date <chr>, source_headline <chr>, source_original <chr>, …
…
Combining Verbs with Pipes

We can chain operations using %>%:

ucdp %>%
  filter(fatalities_best > 10) %>%
  select(country, year, fatalities_best) %>%
  arrange(desc(fatalities_best))

# A tibble: 40,354 × 3
   country   year fatalities_best
   <chr>    <dbl>           <dbl>
 1 Ethiopia  2022          121848
 2 Ethiopia  2021          113368
 3 Ethiopia  2000           48183
 4 Rwanda    1994           40000
 5 Rwanda    1994           40000
 6 Rwanda    1994           40000
 7 Rwanda    1994           37000
 8 Ethiopia  1999           30000
 9 Rwanda    1994           25190
10 Rwanda    1994           25000
# ℹ 40,344 more rows

ucdp %>% 
  arrange(year) %>% # we sort the year variable
  dplyr::distinct(year) # and select only unique years

# A tibble: 36 × 1
    year
   <dbl>
 1  1989
 2  1990
 3  1991
 4  1992
 5  1993
 6  1994
 7  1995
 8  1996
 9  1997
10  1998
# ℹ 26 more rows
…
Copy the name

ucdp_drc <- ucdp %>% # save it in "ucdp_drc"
  dplyr::filter(country == "DR Congo (Zaire)") # only look at "DR Congo (Zaire)" 

Note, we need to use a double equation sign (==) because we are selecting on a conditionality (similar to an if-function).

If we want to look at the fatalities in DR Congo per year, build upon the previous code and extend it.

ucdp %>% 
  dplyr::filter(country == "DR Congo (Zaire)") %>% # only look at "Burundi"
  dplyr::group_by(year) %>% # group by year
  dplyr::summarise(fatalities_mean = mean(fatalities_best)) 

# A tibble: 36 × 2
    year fatalities_mean
   <dbl>           <dbl>
 1  1989            9.33
 2  1990           36.8 
 3  1991            4.57
 4  1992            6.09
 5  1993          167.  
 6  1994           20.8 
 7  1995           32.9 
 8  1996          164.  
 9  1997          101.  
10  1998           65.4 
# ℹ 26 more rows
…
mfv(ucdp$fatalities_best) 

[1] 1

range(ucdp$fatalities_best) 

[1]      0 121848

Use group_by(country, year) and `sum()``` instead of mean to get the total number of fatalities in each country-year.

ucdp %>% 
  dplyr::group_by(country, year) %>% # group by country & year
  dplyr::summarise(fatalities_sum = sum(fatalities_best)) 

# A tibble: 2,046 × 3
# Groups:   country [124]
   country      year fatalities_sum
   <chr>       <dbl>          <dbl>
 1 Afghanistan  1989           5411
 2 Afghanistan  1990           1514
 3 Afghanistan  1991           3553
 4 Afghanistan  1992           4385
 5 Afghanistan  1993           4105
 6 Afghanistan  1994           9056
 7 Afghanistan  1995           5618
 8 Afghanistan  1996           3595
 9 Afghanistan  1997           6721
10 Afghanistan  1998          12174
# ℹ 2,036 more rows

Generate some proportional overview: count()

count() allows us to generate a quasi proportion table for the different values of our variables. We will use the count() function as a way to count the number of observations country.

ucdp %>% 
  dplyr::count(country)

# A tibble: 124 × 2
   country         n
   <chr>       <int>
 1 Afghanistan 42220
 2 Albania        10
 3 Algeria      4179
 4 Angola       2108
 5 Argentina       2
 6 Armenia        77
 7 Australia       2
 8 Austria         1
 9 Azerbaijan    800
10 Bahrain        24
# ℹ 114 more rows

And we now want to sort them so that we’ve the highest value first.

ucdp %>% 
  dplyr::count(country, sort = TRUE)

# A tibble: 124 × 2
   country                n
   <chr>              <int>
 1 Syria              87861
 2 Afghanistan        42220
 3 Ukraine            31547
 4 Mexico             21550
 5 India              17997
 6 Colombia           14620
 7 Iraq                9438
 8 Bosnia-Herzegovina  9340
 9 DR Congo (Zaire)    8901
10 Myanmar (Burma)     8476
# ℹ 114 more rows
…
